list_1/zad5/zad5.vcd
$date
  Mon Mar  5 21:05:40 2018
$end
$version
  GHDL v0
$end
$timescale
  1 fs
$end
$var reg 1 ! a $end
$var reg 1 " b $end
$var reg 1 # c $end
$var reg 1 $ d $end
$var reg 4 % abc[3:0] $end
$var reg 1 & x $end
$var reg 1 ' y $end
$scope module uut $end
$var reg 1 ( a $end
$var reg 1 ) b $end
$var reg 1 * c $end
$var reg 1 + d $end
$var reg 1 , x $end
$var reg 1 - y $end
$var reg 1 . and_and $end
$var reg 1 / xor_xor $end
$var reg 1 0 or_t_f $end
$var reg 1 1 and_and1 $end
$var reg 1 2 and_not $end
$var reg 1 3 xor_xor1 $end
$scope module g1 $end
$var reg 1 4 x $end
$var reg 1 5 y $end
$var reg 1 6 z $end
$upscope $end
$scope module g2 $end
$var reg 1 7 x $end
$var reg 1 8 y $end
$var reg 1 9 z $end
$upscope $end
$scope module g3 $end
$var reg 1 : x $end
$var reg 1 ; y $end
$var reg 1 < z $end
$upscope $end
$scope module g4 $end
$var reg 1 = x $end
$var reg 1 > y $end
$var reg 1 ? z $end
$upscope $end
$scope module g5 $end
$var reg 1 @ x $end
$var reg 1 A y $end
$var reg 1 B z $end
$upscope $end
$scope module g6 $end
$var reg 1 C x $end
$var reg 1 D y $end
$var reg 1 E z $end
$upscope $end
$upscope $end
$enddefinitions $end
#0
0!
0"
0#
0$
b0000 %
U&
U'
0(
0)
0*
0+
U,
U-
U.
U/
U0
U1
U2
U3
04
05
U6
07
08
U9
0:
0;
U<
U=
U>
U?
U@
UA
UB
UC
UD
UE
#1000000
U-
0.
0/
10
06
09
1<
0=
0>
U?
0@
1A
UB
UE
#2000000
0&
0,
01
12
0?
1B
0C
1D
#3000000
1'
1-
1E
#100000000
#200000000
1#
1*
18
#201000000
1/
19
1>
#202000000
0?
#210000000
#310000000
0#
b0001 %
0*
08
#311000000
0/
09
0>
#312000000
0?
#320000000
1$
b0010 %
1+
1;
#321000000
00
0<
0A
#322000000
1B
#330000000
1#
0$
b0011 %
1*
0+
18
0;
#331000000
1/
10
19
1<
1>
1A
#332000000
0?
1B
#340000000
1$
b0100 %
1+
1;
#341000000
00
0<
0A
#342000000
1B
#350000000
1"
0#
0$
b0101 %
1)
0*
0+
15
17
08
1:
0;
#351000000
10
06
19
1<
1A
#352000000
1B
#360000000
1$
b0110 %
1+
1;
#361000000
1<
#370000000
1#
0$
b0111 %
1*
0+
18
0;
#371000000
0/
09
1<
0>
#372000000
0?
#380000000
1$
b1000 %
1+
1;
#381000000
1<
#390000000
1!
0"
0#
0$
b1001 %
1(
0)
0*
0+
14
05
07
08
0:
0;
#391000000
06
09
1<
#400000000
1$
b1010 %
1+
1;
#401000000
00
0<
0A
#402000000
1B
#410000000
1#
0$
b1011 %
1*
0+
18
0;
#411000000
1/
10
19
1<
1>
1A
#412000000
0?
1B
#420000000
1$
b1100 %
1+
1;
#421000000
00
0<
0A
#422000000
1B
#430000000
1"
0#
0$
b1101 %
1)
0*
0+
15
17
08
1:
0;
#431000000
1.
10
16
19
1<
1=
1@
1A
#432000000
1&
1,
11
02
1?
0B
1C
0D
#433000000
1-
1E
#440000000
1$
b1110 %
1+
1;
#441000000
1<
#450000000
1#
0$
b1111 %
1*
0+
18
0;
#451000000
0/
09
1<
0>
#452000000
0&
0,
01
0?
0C
#453000000
0'
0-
0E
#460000000
1$
b0000 %
1+
1;
#461000000
1<
