list_2/towoway/example.vcd
$date
  Tue Mar  6 12:55:05 2018
$end
$version
  GHDL v0
$end
$timescale
  1 fs
$end
$var reg 1 ! clk $end
$var reg 8 " q[7:0] $end
$scope module uut $end
$var reg 1 # clk $end
$var reg 8 $ q[7:0] $end
$upscope $end
$enddefinitions $end
#0
0!
b00000000 "
0#
b00000000 $
#10000000
1!
b11111111 "
1#
b11111111 $
#20000000
0!
0#
#30000000
1!
b11111110 "
1#
b11111110 $
#40000000
0!
0#
#50000000
1!
b11111101 "
1#
b11111101 $
#60000000
0!
0#
#70000000
1!
b11111100 "
1#
b11111100 $
#80000000
0!
0#
#90000000
1!
b11111011 "
1#
b11111011 $
#100000000
0!
0#
#110000000
1!
b11111010 "
1#
b11111010 $
#120000000
0!
0#
#130000000
1!
b11111001 "
1#
b11111001 $
#140000000
0!
0#
#150000000
1!
b11111000 "
1#
b11111000 $
#160000000
0!
0#
#170000000
1!
b11110111 "
1#
b11110111 $
#180000000
0!
0#
#190000000
1!
b11110110 "
1#
b11110110 $
#200000000
0!
0#
#210000000
1!
b11110101 "
1#
b11110101 $
#220000000
0!
0#
#230000000
1!
b11110100 "
1#
b11110100 $
#240000000
0!
0#
#250000000
1!
b11110011 "
1#
b11110011 $
#260000000
0!
0#
#270000000
1!
b11110010 "
1#
b11110010 $
#280000000
0!
0#
#290000000
1!
b11110001 "
1#
b11110001 $
#300000000
0!
0#
#310000000
1!
b11110000 "
1#
b11110000 $
#320000000
0!
0#
#330000000
1!
b11101111 "
1#
b11101111 $
#340000000
0!
0#
#350000000
1!
b11101110 "
1#
b11101110 $
#360000000
0!
0#
#370000000
1!
b11101101 "
1#
b11101101 $
#380000000
0!
0#
#390000000
1!
b11101100 "
1#
b11101100 $
#400000000
0!
0#
#410000000
1!
b11101011 "
1#
b11101011 $
#420000000
0!
0#
#430000000
1!
b11101010 "
1#
b11101010 $
#440000000
0!
0#
#450000000
1!
b11101001 "
1#
b11101001 $
#460000000
0!
0#
#470000000
1!
b11101000 "
1#
b11101000 $
#480000000
0!
0#
#490000000
1!
b11100111 "
1#
b11100111 $
#500000000
0!
0#
#510000000
1!
b11100110 "
1#
b11100110 $
#520000000
0!
0#
#530000000
1!
b11100101 "
1#
b11100101 $
#540000000
0!
0#
#550000000
1!
b11100100 "
1#
b11100100 $
#560000000
0!
0#
#570000000
1!
b11100011 "
1#
b11100011 $
#580000000
0!
0#
#590000000
1!
b11100010 "
1#
b11100010 $
#600000000
0!
0#
#610000000
1!
b11100001 "
1#
b11100001 $
#620000000
0!
0#
#630000000
1!
b11100000 "
1#
b11100000 $
#640000000
0!
0#
#650000000
1!
b11011111 "
1#
b11011111 $
#660000000
0!
0#
#670000000
1!
b11011110 "
1#
b11011110 $
#680000000
0!
0#
#690000000
1!
b11011101 "
1#
b11011101 $
#700000000
0!
0#
#710000000
1!
b11011100 "
1#
b11011100 $
#720000000
0!
0#
#730000000
1!
b11011011 "
1#
b11011011 $
#740000000
0!
0#
#750000000
1!
b11011010 "
1#
b11011010 $
#760000000
0!
0#
#770000000
1!
b11011001 "
1#
b11011001 $
#780000000
0!
0#
#790000000
1!
b11011000 "
1#
b11011000 $
#800000000
0!
0#
#810000000
1!
b11010111 "
1#
b11010111 $
#820000000
0!
0#
#830000000
1!
b11010110 "
1#
b11010110 $
#840000000
0!
0#
#850000000
1!
b11010101 "
1#
b11010101 $
#860000000
0!
0#
#870000000
1!
b11010100 "
1#
b11010100 $
#880000000
0!
0#
#890000000
1!
b11010011 "
1#
b11010011 $
#900000000
0!
0#
#910000000
1!
b11010010 "
1#
b11010010 $
#920000000
0!
0#
#930000000
1!
b11010001 "
1#
b11010001 $
#940000000
0!
0#
#950000000
1!
b11010000 "
1#
b11010000 $
#960000000
0!
0#
#970000000
1!
b11001111 "
1#
b11001111 $
#980000000
0!
0#
#990000000
1!
b11001110 "
1#
b11001110 $
#1000000000
0!
0#
#1010000000
1!
b11001101 "
1#
b11001101 $
#1020000000
0!
0#
#1030000000
1!
b11001100 "
1#
b11001100 $
#1040000000
0!
0#
#1050000000
1!
b11001011 "
1#
b11001011 $
#1060000000
0!
0#
#1070000000
1!
b11001010 "
1#
b11001010 $
#1080000000
0!
0#
#1090000000
1!
b11001001 "
1#
b11001001 $
#1100000000
0!
0#
#1110000000
1!
b11001000 "
1#
b11001000 $
#1120000000
0!
0#
#1130000000
1!
b11000111 "
1#
b11000111 $
#1140000000
0!
0#
#1150000000
1!
b11000110 "
1#
b11000110 $
#1160000000
0!
0#
#1170000000
1!
b11000101 "
1#
b11000101 $
#1180000000
0!
0#
#1190000000
1!
b11000100 "
1#
b11000100 $
#1200000000
0!
0#
#1210000000
1!
b11000011 "
1#
b11000011 $
#1220000000
0!
0#
#1230000000
1!
b11000010 "
1#
b11000010 $
#1240000000
0!
0#
#1250000000
1!
b11000001 "
1#
b11000001 $
#1260000000
0!
0#
#1270000000
1!
b11000000 "
1#
b11000000 $
#1280000000
0!
0#
#1290000000
1!
b10111111 "
1#
b10111111 $
#1300000000
0!
0#
#1310000000
1!
b10111110 "
1#
b10111110 $
#1320000000
0!
0#
#1330000000
1!
b10111101 "
1#
b10111101 $
#1340000000
0!
0#
#1350000000
1!
b10111100 "
1#
b10111100 $
#1360000000
0!
0#
#1370000000
1!
b10111011 "
1#
b10111011 $
#1380000000
0!
0#
#1390000000
1!
b10111010 "
1#
b10111010 $
